{
  "extends": [
    "tslint:recommended",
    "tslint-eslint-rules",
    "tslint-react",
    "@blueprintjs/tslint-config/blueprint-rules",
    "tslint-config-prettier",
    "tslint-config-security"
  ],
  "exclude": ["**/*.css"]
}
